{
  "generator-veams": {
    "projectName": "mewca",
    "projectAuthor": "phucnguyen",
    "taskRunner": [
      "grunt"
    ],
    "templateEngine": "mangony",
    "mangonyExpress": true,
    "installExtendedLayout": false,
    "installPlugin": false,
    "gulpModules": [],
    "gruntModules": [
      "grunt-autoprefixer",
      "grunt-browser-sync",
      "grunt-browserify",
      "grunt-combine-mq",
      "grunt-contrib-uglify",
      "grunt-csscomb",
      "grunt-dr-svg-sprites",
      "grunt-phantomas",
      "grunt-photobox",
      "grunt-postcss-separator",
      "grunt-responsive-images",
      "grunt-version"
    ],
    "features": [
      "createDevFolder"
    ],
    "jsLibs": [
      "jquery"
    ],
    "cssLibs": [
      "bootstrap-sass"
    ],
    "testAndQA": true,
    "testAndQALibs": [
      "jscs",
      "hintingHTML",
      "hintingJS",
      "stylelint",
      "webdriver"
    ],
    "veamsPackages": [
      "veamsMethodology",
      "veamsSCSS"
    ],
    "docs": []
  }
}